…
  head(10) %>%
  print(width = Inf)
```
```{r}
flights %>%
   # find all airports with > 1 carrier
   group_by(dest) %>%
   mutate(n_carriers = n_distinct(carrier)) %>%
   filter(n_carriers > 1) %>%
   # rank carriers by numer of destinations
   group_by(carrier) %>%
   summarize(n_dest = n_distinct(dest)) %>%
   arrange(desc(n_dest))
#> `summarise()` ungrouping output (override with `.groups` argument)
#> # A tibble: 16 x 2
#>   carrier n_dest
#>   <chr>    <int>
#> 1 EV          51
#> 2 9E          48
#> 3 UA          42
#> 4 DL          39
#> 5 B6          35
#> 6 AA          19
#> # … with 10 more rows
```
